<?xml version="1.0" encoding="utf-8"?>
<!-- Generator: Adobe Illustrator 19.2.1, SVG Export Plug-In . SVG Version: 6.00 Build 0)  -->
<svg version="1.1" id="OBJECTS" xmlns="http://www.w3.org/2000/svg" xmlns:xlink="http://www.w3.org/1999/xlink" x="0px" y="0px"
	 viewBox="0 0 73.7 26" style="enable-background:new 0 0 73.7 26;" xml:space="preserve">
<style type="text/css">
	.st0{fill:#121F6B;}
</style>
<polygon class="st0" points="71.7,13 51.7,1.4 51.7,9 1.9,9 1.9,17 51.7,17 51.7,24.5 "/>
</svg>
